<svg width="23" height="20" viewBox="0 0 23 20" fill="none" xmlns="http://www.w3.org/2000/svg">
<path d="M12.5 14L18 17L22 1M12.5 14L8.02328 17.9793M12.5 14L11 13M22 1L11 13M22 1L8.5 12M22 1L2 9.5L8.5 12M11 13L8.02328 17.9793M8.02328 17.9793L8 18L8.5 12" stroke="#5D535E"/>
</svg>
