<svg width="3" height="11" viewBox="0 0 3 11" fill="none" xmlns="http://www.w3.org/2000/svg">
<path fill-rule="evenodd" clip-rule="evenodd" d="M3 1.5C3 2.32843 2.32843 3 1.5 3C0.67157 3 0 2.32843 0 1.5C0 0.67157 0.67157 0 1.5 0C2.32843 0 3 0.67157 3 1.5ZM3 9.5C3 10.3284 2.32843 11 1.5 11C0.67157 11 0 10.3284 0 9.5C0 8.67157 0.67157 8 1.5 8C2.32843 8 3 8.67157 3 9.5ZM1.5 7C2.32843 7 3 6.32843 3 5.5C3 4.67157 2.32843 4 1.5 4C0.67157 4 0 4.67157 0 5.5C0 6.32843 0.67157 7 1.5 7Z" fill="#5D535E"/>
</svg>
